<svg xmlns="http://www.w3.org/2000/svg" width="114.609" height="35.217" viewBox="0 0 114.609 35.217">
    <defs>
        <style>
            .cls-1{fill:#002659}
        </style>
    </defs>
    <g id="그룹_111" data-name="그룹 111" transform="translate(-104.269 -111.254)">
        <g id="그룹_110" data-name="그룹 110" transform="translate(104.269 111.254)">
            <g id="그룹_107" data-name="그룹 107" transform="translate(29.909)">
                <path id="패스_239" d="M289.589 118.865v33.178h-5.119v-3.413a9.739 9.739 0 0 1-8.295 4.029c-6.446 0-11.8-5.451-11.8-12.466 0-7.062 5.356-12.466 11.8-12.466a9.823 9.823 0 0 1 8.295 3.982v-12.844zm-5.119 21.329a7.489 7.489 0 1 0-7.489 7.584 7.324 7.324 0 0 0 7.489-7.584z" class="cls-1" data-name="패스 239" transform="translate(-264.373 -117.443)"/>
                <path id="패스_240" d="M435.117 167.327v5.545c-3.365-.237-7.3 1.327-7.3 6.635v11.944H422.7v-23.7h5.119v3.982c1.421-3.221 4.312-4.406 7.298-4.406z" class="cls-1" data-name="패스 240" transform="translate(-393.122 -156.852)"/>
                <path id="패스_241" d="M497.04 118.839a3.27 3.27 0 1 1 3.27 3.27 3.277 3.277 0 0 1-3.27-3.27zm.711 6.825h5.119v23.7h-5.119z" class="cls-1" data-name="패스 241" transform="translate(-453.576 -114.763)"/>
                <path id="패스_242" d="M557.17 186.55a7.235 7.235 0 0 0 6.114-2.939l4.219 2.464a11.972 11.972 0 0 1-10.38 5.167c-7.82 0-12.892-5.356-12.892-12.466a12.089 12.089 0 0 1 12.513-12.466c7.062 0 11.9 5.688 11.9 12.513a15.546 15.546 0 0 1-.189 2.133h-18.869c.806 3.698 3.792 5.594 7.584 5.594zm6.3-9.764a6.6 6.6 0 0 0-6.778-5.83 6.889 6.889 0 0 0-7.157 5.83z" class="cls-1" data-name="패스 242" transform="translate(-491.95 -156.026)"/>
                <path id="패스_243" d="M690.375 111.254h5.119v34.6h-5.119z" class="cls-1" data-name="패스 243" transform="translate(-610.794 -111.254)"/>
            </g>
            <g id="그룹_108" data-name="그룹 108" transform="translate(10.751 1.493)">
                <path id="패스_244" d="M167.307 119.246l12.013 33.107h-5.912l-11.587-33.107z" class="cls-1" data-name="패스 244" transform="translate(-161.822 -119.246)"/>
            </g>
            <g id="그룹_109" data-name="그룹 109" transform="translate(0 17.124)">
                <path id="패스_245" d="M109.634 220.4h-5.365c0-3 .845-13.124 11.726-17.476l1.993 4.981a12.96 12.96 0 0 0-8.354 12.495z" class="cls-1" data-name="패스 245" transform="translate(-104.269 -202.919)"/>
            </g>
        </g>
    </g>
</svg>
